{
    "paths": [
        {
            "name": "/representatives/{state}",
            "lambdaFunction": "GoSoloReactExerciseFetchRepresentativesLambda",
            "privacy": {
                "open": true
            }
        },
        {
            "name": "/senators/{state}",
            "lambdaFunction": "GoSoloReactExerciseFetchRepresentativesLambda",
            "privacy": {
                "open": true
            }
        }
    ],
    "resourceName": "RepresentativesAPI",
    "apiName": "RepresentativesAPI",
    "functionArns": [
        {
            "lambdaFunction": "GoSoloReactExerciseFetchRepresentativesLambda"
        }
    ],
    "privacy": {
        "auth": 0,
        "unauth": 0,
        "authRoleName": "amplify-gosoloreactexercise-dev-104608-authRole",
        "unAuthRoleName": "amplify-gosoloreactexercise-dev-104608-unauthRole"
    },
    "dependsOn": [
        {
            "category": "function",
            "resourceName": "GoSoloReactExerciseFetchRepresentativesLambda",
            "attributes": [
                "Name",
                "Arn"
            ]
        }
    ],
    "uuid": "fccf6a8c"
}